{
  "EDITOR_STATE": {
    "allProjectFiles": {
      "b5f8bc1f-8914-4e36-b4a9-4e3f00ce015a": {
        "id": "b5f8bc1f-8914-4e36-b4a9-4e3f00ce015a",
        "parent": null,
        "name": "a-203",
        "type": "DIRECTORY",
        "isDirectory": true,
        "children": [
          "fdd40929-b21c-486b-8e7b-b9febb063fe3"
        ],
        "isRemovable": false,
        "filePath": "a-203"
      },
      "fdd40929-b21c-486b-8e7b-b9febb063fe3": {
        "id": "fdd40929-b21c-486b-8e7b-b9febb063fe3",
        "parent": "b5f8bc1f-8914-4e36-b4a9-4e3f00ce015a",
        "name": "lambda.js",
        "type": "JS_LAMBDA",
        "isDirectory": false,
        "children": [],
        "isRemovable": true,
        "filePath": "a-203/lambda.js",
        "code": "exports.handler = function(event, context, callback) {\n    \n    callback(null, {\"message\": \"Successfully executed\"});\n}",
        "config": {
          "runtime": "nodejs8.10",
          "handler": "handler",
          "timeout": 60,
          "memory": 128,
          "layers": []
        },
        "triggers": []
      }
    },
    "rootNode": "b5f8bc1f-8914-4e36-b4a9-4e3f00ce015a",
    "openFiles": [
      "fdd40929-b21c-486b-8e7b-b9febb063fe3"
    ],
    "currentFileId": "fdd40929-b21c-486b-8e7b-b9febb063fe3",
    "resources": {},
    "customTemplate": {
      "dialect": null,
      "definitions": null
    },
    "envVariables": [
      {
        "lambdaId": "all",
        "varKey": "SIGMA_AWS_ACC_ID",
        "varValue": null,
        "shouldPersist": false,
        "displayOnly": false,
        "editable": false
      }
    ],
    "packageJSON": {
      "dependencies": {}
    }
  },
  "PROJECT_META": {
    "projectName": "a-203",
    "projectDescription": "",
    "projectVersion": "1.0.0",
    "projectRegion": "us-east-1",
    "platform": "AWS",
    "platformRegions": {}
  },
  "VCS_STATE": {
    "provider": "BitBucket",
    "repo": {
      "name": "a-203",
      "url": "https://bitbucket.org/sigmavcs/a-203"
    }
  }
}